{
  "db": {
    "name": "db",
    "connector": "memory"
  },
  "mongoDB": {
    "host": "localhost",
    "port": 27017,
    "url": "",
    "database": "booksDB",
    "password": "",
    "name": "mongoDB",
    "user": "",
    "connector": "mongodb"
  }
}
